2011-09-22 17:35:27 - checkdate() expects parameter 3 to be long, string given
    checkdate(string, string, string) (:) in file  at line
    SLS_Date::isValidDate(string, string, string) (SLS_Date.class.php:278) in file /home/karuasth/sd/gestionpatient/www/Sls/Generics/Tools/SLS_Date.class.php at line 278
    SLS_Date::isDate(string) (SLS_Date.class.php:312) in file /home/karuasth/sd/gestionpatient/www/Sls/Generics/Tools/SLS_Date.class.php at line 312
    SLS_Date::isTimestamp(string) (SLS_Date.class.php:379) in file /home/karuasth/sd/gestionpatient/www/Sls/Generics/Tools/SLS_Date.class.php at line 379
    SLS_Date::dateToDateTime(string) (SLS_Date.class.php:412) in file /home/karuasth/sd/gestionpatient/www/Sls/Generics/Tools/SLS_Date.class.php at line 412
    PatientInclusion->action() (Inclusion.controller.php:79) in file /home/karuasth/sd/gestionpatient/www/Mvc/Controllers/Actions/Patient/Inclusion.controller.php at line 79
    SLS_FrontController->loadScontroller(string) (SLS_FrontController.controller.php:239) in file /home/karuasth/sd/gestionpatient/www/Sls/Controllers/Core/SLS_FrontController.controller.php at line 239
    SLS_FrontController->loadController() (SLS_FrontController.controller.php:191) in file /home/karuasth/sd/gestionpatient/www/Sls/Controllers/Core/SLS_FrontController.controller.php at line 191
    (index.php:5) in file /home/karuasth/sd/gestionpatient/www/index.php at line 5
2011-09-22 17:35:27 - checkdate() expects parameter 3 to be long, string given
    checkdate(string, string, string) (:) in file  at line
    SLS_Date::isValidDate(string, string, string) (SLS_Date.class.php:278) in file /home/karuasth/sd/gestionpatient/www/Sls/Generics/Tools/SLS_Date.class.php at line 278
    SLS_Date::isDate(string) (SLS_Date.class.php:312) in file /home/karuasth/sd/gestionpatient/www/Sls/Generics/Tools/SLS_Date.class.php at line 312
    SLS_Date::dateToDateTime(string) (SLS_Date.class.php:410) in file /home/karuasth/sd/gestionpatient/www/Sls/Generics/Tools/SLS_Date.class.php at line 410
    PatientInclusion->action() (Inclusion.controller.php:79) in file /home/karuasth/sd/gestionpatient/www/Mvc/Controllers/Actions/Patient/Inclusion.controller.php at line 79
    SLS_FrontController->loadScontroller(string) (SLS_FrontController.controller.php:239) in file /home/karuasth/sd/gestionpatient/www/Sls/Controllers/Core/SLS_FrontController.controller.php at line 239
    SLS_FrontController->loadController() (SLS_FrontController.controller.php:191) in file /home/karuasth/sd/gestionpatient/www/Sls/Controllers/Core/SLS_FrontController.controller.php at line 191
    (index.php:5) in file /home/karuasth/sd/gestionpatient/www/index.php at line 5
